{
  "images" : [
    {
      "filename" : "icons8-wikipedia-32(@1x).png",
      "idiom" : "universal",
      "scale" : "1x"
    },
    {
      "filename" : "icons8-wikipedia-64(@2x).png",
      "idiom" : "universal",
      "scale" : "2x"
    },
    {
      "filename" : "icons8-wikipedia-96(@3x).png",
      "idiom" : "universal",
      "scale" : "3x"
    }
  ],
  "info" : {
    "author" : "xcode",
    "version" : 1
  }
}
